%YAML 1.1
%TAG !u! tag:unity3d.com,2011:
--- !u!1045 &1
EditorBuildSettings:
  m_ObjectHideFlags: 0
  serializedVersion: 2
  m_Scenes:
  - enabled: 1
    path: Assets/Las7MaravillasDelMundoModerno/Scenes/MenuMundo.unity
    guid: fb71860c39e594acaafad7dc8e6f2187
  - enabled: 1
    path: Assets/Las7MaravillasDelMundoModerno/Scenes/CristoRedentor.unity
    guid: 65a52801451ce40089662039994dba87
  - enabled: 1
    path: Assets/Las7MaravillasDelMundoModerno/Scenes/TajMahal.unity
    guid: c37b1e9dcfca8430cabcaadf97b8ca93
  - enabled: 1
    path: Assets/Las7MaravillasDelMundoModerno/Scenes/ChichenItza.unity
    guid: 1c9685a3e9ba24a9caa4acbd4e7fd5e6
  - enabled: 1
    path: Assets/Las7MaravillasDelMundoModerno/Scenes/TesoroPetra.unity
    guid: e73bb479167b6452d9e35ed005473190
  - enabled: 1
    path: Assets/Las7MaravillasDelMundoModerno/Scenes/MurallaChina.unity
    guid: 9a0771480b46e49f0a9fbece79bdf35c
  - enabled: 1
    path: Assets/Las7MaravillasDelMundoModerno/Scenes/MachuPicchu.unity
    guid: d1b05a15600944174b5cc583c5063a45
  - enabled: 1
    path: Assets/Las7MaravillasDelMundoModerno/Scenes/Coliseo.unity
    guid: e8c2ea65656184edaa25830987d98229
  m_configObjects: {}
